<?xml version="1.0" encoding="utf-8"?>
<!-- Generator: Adobe Illustrator 21.0.0, SVG Export Plug-In . SVG Version: 6.00 Build 0)  -->
<svg version="1.1" id="Calque_1" xmlns="http://www.w3.org/2000/svg" xmlns:xlink="http://www.w3.org/1999/xlink" x="0px" y="0px"
	 viewBox="0 0 100 100" style="enable-background:new 0 0 100 100;" xml:space="preserve">
<path d="M40.1,64.1c3.2,6.1,8.7,11.4,9.9,11.4s6.7-5.2,9.9-11.4c-2.9-1.6-5.6-3.7-7.4-6.4c0-0.1-0.1-0.1-0.1-0.2
	c-0.9,0.4-1.7,0.7-2.4,0.7s-1.5-0.3-2.4-0.7c0,0.1-0.1,0.1-0.1,0.2C45.7,60.4,43,62.5,40.1,64.1z"/>
<path d="M53.1,19.4V8.1C53.1,6.4,51.7,5,50,5s-3.1,1.4-3.1,3.1v11.4c-11.4,1.2-25.8,9.2-26.2,24.8c2,0.7,9.1,0.6,15.3-3.3l2.1-1.3
	l1,2.3c2.5,5.5,9,11.3,10.9,11.8c1.8-0.5,8.4-6.3,10.9-11.8l1-2.3L64,41c6.2,3.8,13.3,3.9,15.3,3.3C78.9,28.7,64.5,20.7,53.1,19.4z"
	/>
<path d="M63.8,45.9c-1.9,3.2-4.8,6.7-7.7,9.1c0,0.1,0.1,0.1,0.1,0.2c4.1,6,15.3,9,19,9c0.5,0,0.9-0.1,1.1-0.2
	c1-0.7,2.6-8.3,1.6-15.1c-0.4,0-0.9,0-1.4,0C72.8,49,68.1,48.1,63.8,45.9z"/>
<path d="M24.9,64.2c3.7,0,14.9-3,19-9c0-0.1,0.1-0.1,0.1-0.2c-2.9-2.4-5.8-5.9-7.7-9.1c-4.4,2.2-9,3.1-12.6,3.1c-0.5,0-0.9,0-1.4,0
	c-1,6.7,0.6,14.4,1.6,15.1C24,64.1,24.4,64.2,24.9,64.2z"/>
<path d="M33.1,81.1c0,0,0.1,0,0.2,0c1.2,0,5.6-2.4,9.4-5.9c-2.9-3.2-5.5-7.1-6.5-9.1L36.1,66c-3.5,1.4-6.9,2.2-9.3,2.5
	C28.2,74.8,32,80.8,33.1,81.1z"/>
<path d="M66.7,81.2c0.1,0,0.1,0,0.2,0c1.2-0.3,4.9-6.3,6.4-12.7c-2.4-0.3-5.9-1.1-9.3-2.5l-0.1,0.1c-1.1,2-3.6,6-6.5,9.1
	C61.2,78.8,65.5,81.2,66.7,81.2z"/>
<g>
	<path d="M54.3,78.6L54,78.3c-1.4,1-2.8,1.6-4,1.6s-2.6-0.6-4-1.6l-0.3,0.3c-1.3,1.2-3.4,2.9-5.7,4.4c2.8,6.3,8.7,12,10,12
		s7.2-5.7,10.1-12.1C57.8,81.5,55.7,79.8,54.3,78.6z"/>
</g>
</svg>
