<?xml version="1.0" encoding="utf-8"?>
<!-- Generator: Adobe Illustrator 21.0.0, SVG Export Plug-In . SVG Version: 6.00 Build 0)  -->
<svg version="1.1" id="Calque_1" xmlns="http://www.w3.org/2000/svg" xmlns:xlink="http://www.w3.org/1999/xlink" x="0px" y="0px"
	 viewBox="0 0 100 100" style="enable-background:new 0 0 100 100;" xml:space="preserve">
<path d="M69.5,12C62.6,12,57,17.6,57,24.5c0,0.9,0.1,1.7,0.3,2.6l-16.5,9.2C37.5,33,33,31,28,31c-9.9,0-18,8.1-18,18s8.1,18,18,18
	c5.3,0,10.1-2.3,13.4-6l19.8,9.7c-0.2,0.9-0.3,1.9-0.3,2.8c0,8,6.5,14.5,14.5,14.5S90,81.5,90,73.5S83.5,59,75.5,59
	c-4.5,0-8.6,2.1-11.2,5.3L45,54.9c0.6-1.9,1-3.8,1-5.9c0-2.4-0.5-4.8-1.4-6.9l15.9-8.9c2.3,2.3,5.4,3.8,8.9,3.8
	c7,0,12.6-5.6,12.6-12.5S76.4,12,69.5,12L69.5,12z"/>
</svg>
