<?xml version="1.0" encoding="utf-8"?>
<!-- Generator: Adobe Illustrator 21.0.0, SVG Export Plug-In . SVG Version: 6.00 Build 0)  -->
<svg version="1.1" id="Calque_1" xmlns="http://www.w3.org/2000/svg" xmlns:xlink="http://www.w3.org/1999/xlink" x="0px" y="0px"
	 viewBox="0 0 100 100" style="enable-background:new 0 0 100 100;" xml:space="preserve">
<path d="M50,53.2c-16.5,0-29.8,4.3-29.8,9.7c0,16.5,13.4,29.8,29.8,29.8s29.8-13.4,29.8-29.8C79.8,57.5,66.5,53.2,50,53.2z M50,70.4
	c-10.4,0-19.4-1.7-23.9-4.1c4-2.3,12.7-4.2,23.9-4.2s19.9,1.9,23.8,4.2C69.4,68.7,60.4,70.4,50,70.4z M75.1,65.5
	c-4.6-3-15.1-4.6-25.1-4.6s-20.5,1.6-25.1,4.7c-1.1-0.8-1.7-1.7-1.7-2.7c0-4.1,12-7.5,26.8-7.5s26.8,3.4,26.8,7.5
	C76.8,63.8,76.2,64.7,75.1,65.5z"/>
<circle cx="53.4" cy="47.7" r="1.2"/>
<path d="M51.8,51.9c0.7,0,1.2-0.5,1.2-1.2s-0.5-1.2-1.2-1.2s-1.2,0.5-1.2,1.2C50.6,51.3,51.1,51.9,51.8,51.9z"/>
<circle cx="51.5" cy="57.3" r="1.2"/>
<circle cx="55.2" cy="58.9" r="1.2"/>
<circle cx="52.8" cy="64.1" r="1.2"/>
<circle cx="45.9" cy="64.9" r="1.2"/>
<circle cx="49.8" cy="66.2" r="1.2"/>
<circle cx="55.9" cy="66.2" r="1.2"/>
<path d="M39.9,48c0.1,0.5,0.5,0.9,1,0.9l0,0c2.5,0,5.3-0.3,8.3-0.9c0.5-0.1,0.9-0.6,0.9-1.2c-0.3-2.3-0.9-7.4-2.3-13.4
	c2.3,3.9,5.2,8.8,6.7,12.3c0.2,0.5,0.8,0.7,1.3,0.6c11.4-3.3,21.8-8.8,21.9-8.8c0.4-0.2,0.6-0.6,0.6-1c-1-15.3-14.5-28.4-15.1-29
	c-0.4-0.4-1.1-0.4-1.5,0C50.3,18.6,34.6,21.9,34.4,22c-0.3,0.1-0.6,0.3-0.7,0.5c-0.1,0.3-0.2,0.6-0.1,0.9
	C38.1,34.4,39.9,47.8,39.9,48z M41,33.7l-1.7,0.4c-0.4-1.6-0.9-3.3-1.4-5l1.7-0.4C40.1,30.1,40.6,31.8,41,33.7z M39.6,35.3l1.7-0.4
	c0.4,1.8,0.8,3.8,1.2,6l-1.6,0.3C40.6,39.5,40.1,37.5,39.6,35.3z M41.1,42.5l1.6-0.3c0.2,1.4,0.4,2.9,0.6,4.5c-0.5,0-1,0.1-1.5,0.1
	C41.7,45.8,41.5,44.4,41.1,42.5z M46,26.4c-0.3-0.4-0.9-0.6-1.3-0.4c-0.5,0.2-0.7,0.8-0.6,1.3c2.3,7.7,3.4,15.2,3.8,18.8
	c-1.1,0.2-2.2,0.4-3.3,0.5c-1.4-12.4-4.5-20.7-5.7-23.6c4.9-1.5,13.4-4.8,21.1-11c2.6,3.2,12.1,15.7,12.5,25.8
	c-3.8,1.8-9.9,4.4-16.3,6.3C53,37.3,46.3,26.8,46,26.4z M71.2,21.5l-2.3,1.3c-1.2-2.3-2.6-4.4-3.8-6.2l1.9-1.5
	C68.3,17,69.8,19.1,71.2,21.5z M74.6,29.1l-2.5,1c-0.7-2.1-1.7-4.2-2.7-6.2l2.3-1.3C72.9,24.7,73.9,26.9,74.6,29.1z M73.7,37.2
	c-0.1-1.9-0.5-3.9-1.1-5.9l2.5-1c0.5,1.8,0.9,3.7,1.1,5.6C75.6,36.3,74.8,36.7,73.7,37.2z M62.5,9.8c0.8,0.8,2.1,2.3,3.7,4.3
	l-1.8,1.4c-1.4-2-2.6-3.5-3.3-4.4C61.5,10.7,62,10.3,62.5,9.8z M37.7,23.3c0.3,0.8,0.9,2.2,1.6,4.2l-1.7,0.4
	c-0.4-1.4-0.9-2.8-1.5-4.2C36.5,23.6,37.1,23.5,37.7,23.3z"/>
</svg>
