{
  "IcoMoonType": "selection",
  "icons": [
    {
      "icon": {
        "paths": [
          "M633.856 262.144c0-1.024 0-2.048 0-3.072s0-2.048 0-3.072c0-7.168-1.024-14.336-3.072-22.528s-5.12-16.384-9.216-24.576c-30.72-71.68-109.568-163.84-109.568-163.84s-78.848 93.184-109.568 163.84c-4.096 8.192-7.168 16.384-9.216 24.576s-3.072 15.36-3.072 22.528c0 1.024 0 2.048 0 3.072s0 2.048 0 3.072c0 7.168 1.024 14.336 3.072 22.528s5.12 16.384 9.216 24.576c30.72 71.68 109.568 164.864 109.568 164.864s78.848-93.184 109.568-164.864c4.096-8.192 7.168-16.384 9.216-24.576s3.072-15.36 3.072-22.528z",
          "M747.52 628.736c1.024-1.024 1.024-2.048 2.048-2.048s2.048-1.024 2.048-2.048c5.12-5.12 9.216-11.264 13.312-18.432s8.192-15.36 11.264-23.552c28.672-72.704 38.912-193.536 38.912-193.536s-121.856 10.24-193.536 38.912c-8.192 3.072-16.384 6.144-23.552 11.264-7.168 4.096-13.312 8.192-18.432 13.312-1.024 1.024-1.024 2.048-2.048 2.048-1.024 1.024-2.048 1.024-2.048 2.048-5.12 5.12-9.216 11.264-13.312 18.432-5.12 7.168-8.192 15.36-11.264 23.552-28.672 71.68-38.912 193.536-38.912 193.536s120.832-10.24 193.536-38.912c8.192-3.072 16.384-6.144 23.552-11.264 7.168-4.096 13.312-8.192 18.432-13.312z",
          "M276.48 628.736c-1.024-1.024-1.024-2.048-2.048-2.048-1.024-1.024-2.048-1.024-2.048-2.048-5.12-5.12-9.216-11.264-13.312-18.432-5.12-7.168-8.192-15.36-11.264-23.552-28.672-72.704-38.912-193.536-38.912-193.536s120.832 10.24 193.536 38.912c8.192 3.072 16.384 6.144 23.552 11.264 7.168 4.096 13.312 8.192 18.432 13.312 1.024 1.024 1.024 2.048 2.048 2.048s2.048 1.024 2.048 2.048c5.12 5.12 9.216 11.264 13.312 18.432s8.192 15.36 11.264 23.552c28.672 71.68 38.912 193.536 38.912 193.536s-121.856-10.24-193.536-38.912c-8.192-3.072-16.384-6.144-23.552-11.264-7.168-4.096-13.312-8.192-18.432-13.312z",
          "M747.52 916.48c1.024-1.024 1.024-2.048 2.048-2.048 1.024-1.024 2.048-1.024 2.048-2.048 5.12-5.12 9.216-11.264 13.312-18.432s8.192-15.36 11.264-23.552c28.672-72.704 38.912-193.536 38.912-193.536s-121.856 10.24-193.536 38.912c-8.192 3.072-16.384 6.144-23.552 11.264-7.168 4.096-13.312 8.192-18.432 13.312-1.024 1.024-1.024 2.048-2.048 2.048-1.024 1.024-2.048 1.024-2.048 2.048-5.12 5.12-9.216 11.264-13.312 18.432-5.12 7.168-8.192 15.36-11.264 23.552-28.672 71.68-38.912 193.536-38.912 193.536s120.832-10.24 193.536-38.912c8.192-3.072 16.384-6.144 23.552-11.264 7.168-4.096 13.312-8.192 18.432-13.312z",
          "M276.48 916.48c-1.024-1.024-1.024-2.048-2.048-2.048-1.024-1.024-2.048-1.024-2.048-2.048-5.12-5.12-9.216-11.264-13.312-18.432-5.12-7.168-8.192-15.36-11.264-23.552-28.672-72.704-38.912-194.56-38.912-194.56s120.832 10.24 193.536 38.912c8.192 3.072 16.384 6.144 23.552 11.264 7.168 4.096 13.312 8.192 18.432 13.312 1.024 1.024 1.024 2.048 2.048 2.048 1.024 1.024 2.048 1.024 2.048 2.048 5.12 5.12 9.216 11.264 13.312 18.432s8.192 15.36 11.264 23.552c28.672 72.704 38.912 194.56 38.912 194.56s-121.856-10.24-193.536-38.912c-8.192-3.072-16.384-6.144-23.552-11.264-7.168-4.096-13.312-8.192-18.432-13.312z"
        ],
        "attrs": [
          {},
          {},
          {},
          {},
          {}
        ],
        "isMulticolor": false,
        "isMulticolor2": false,
        "grid": 24,
        "tags": [
          "barley_noun_27508_cc"
        ]
      },
      "attrs": [
        {},
        {},
        {},
        {},
        {}
      ],
      "properties": {
        "order": 16,
        "id": 13,
        "name": "barley2",
        "prevSize": 32,
        "code": 59648
      },
      "setIdx": 0,
      "setId": 4,
      "iconIdx": 0
    },
    {
      "icon": {
        "paths": [
          "M485.376 600.064c-28.672 0-56.32-11.264-76.8-31.744-25.6-25.6-36.864-61.44-30.72-96.256 1.024-6.144 6.144-11.264 12.288-12.288 34.816-6.144 70.656 5.12 96.256 30.72s36.864 61.44 30.72 96.256c-1.024 6.144-6.144 11.264-12.288 12.288s-13.312 1.024-19.456 1.024zM501.76 583.68v0 0zM407.552 488.448c-1.024 21.504 7.168 43.008 22.528 58.368s36.864 23.552 58.368 22.528c1.024-21.504-7.168-43.008-22.528-58.368-16.384-15.36-36.864-23.552-58.368-22.528z",
          "M485.376 747.52c-28.672 0-56.32-11.264-76.8-31.744-25.6-25.6-36.864-61.44-30.72-96.256 1.024-6.144 6.144-11.264 12.288-12.288 34.816-6.144 71.68 5.12 96.256 30.72v0c25.6 25.6 36.864 61.44 30.72 96.256-1.024 6.144-6.144 11.264-12.288 12.288s-12.288 1.024-19.456 1.024zM501.76 731.136v0 0zM407.552 635.904c-1.024 21.504 7.168 43.008 22.528 58.368s36.864 23.552 58.368 22.528c1.024-21.504-7.168-43.008-22.528-58.368v0c-16.384-14.336-36.864-22.528-58.368-22.528z",
          "M485.376 896c-28.672 0-56.32-11.264-76.8-31.744-25.6-25.6-36.864-61.44-30.72-96.256 1.024-6.144 6.144-11.264 12.288-12.288 34.816-6.144 70.656 5.12 96.256 30.72v0c25.6 25.6 36.864 61.44 30.72 96.256-1.024 6.144-6.144 11.264-12.288 12.288-6.144 0-13.312 1.024-19.456 1.024zM407.552 784.384c-1.024 21.504 7.168 43.008 22.528 58.368s36.864 23.552 58.368 22.528c1.024-21.504-7.168-43.008-22.528-58.368-16.384-15.36-36.864-23.552-58.368-22.528z",
          "M558.080 532.48c-6.144 0-12.288-1.024-19.456-2.048-6.144-1.024-11.264-6.144-12.288-12.288-6.144-34.816 5.12-70.656 30.72-96.256v0c25.6-25.6 61.44-36.864 96.256-30.72 6.144 1.024 11.264 6.144 12.288 12.288 6.144 34.816-5.12 71.68-30.72 96.256-20.48 21.504-48.128 32.768-76.8 32.768zM555.008 501.76c21.504 1.024 43.008-7.168 58.368-22.528s23.552-36.864 22.528-58.368c-21.504-1.024-43.008 7.168-58.368 22.528-15.36 16.384-23.552 36.864-22.528 58.368z",
          "M558.080 680.96c-6.144 0-12.288-1.024-19.456-2.048-6.144-1.024-11.264-6.144-12.288-12.288-6.144-34.816 5.12-70.656 30.72-96.256v0c25.6-25.6 61.44-36.864 96.256-30.72 6.144 1.024 11.264 6.144 12.288 12.288 6.144 34.816-5.12 71.68-30.72 96.256-20.48 21.504-48.128 32.768-76.8 32.768zM555.008 650.24c21.504 1.024 43.008-7.168 58.368-22.528s23.552-36.864 22.528-58.368c-21.504-1.024-43.008 7.168-58.368 22.528s-23.552 36.864-22.528 58.368z",
          "M558.080 828.416c-6.144 0-12.288-1.024-19.456-2.048-6.144-1.024-11.264-6.144-12.288-12.288-6.144-34.816 5.12-71.68 30.72-96.256s61.44-36.864 96.256-30.72c6.144 1.024 11.264 6.144 12.288 12.288 6.144 34.816-5.12 71.68-30.72 96.256-20.48 21.504-48.128 32.768-76.8 32.768zM555.008 797.696c21.504 1.024 43.008-7.168 58.368-22.528s23.552-36.864 22.528-58.368c-21.504 0-41.984 8.192-57.344 23.552-16.384 15.36-24.576 35.84-23.552 57.344z",
          "M514.048 429.056c-8.192 0-15.36-7.168-15.36-15.36v-181.248c0-8.192 7.168-15.36 15.36-15.36s15.36 7.168 15.36 15.36v181.248c0 8.192-7.168 15.36-15.36 15.36z",
          "M447.488 420.864c-8.192 0-15.36-7.168-15.36-15.36v-262.144c0-8.192 7.168-15.36 15.36-15.36s15.36 7.168 15.36 15.36v262.144c0 9.216-6.144 15.36-15.36 15.36z",
          "M579.584 356.352c-8.192 0-15.36-7.168-15.36-15.36v-197.632c0-8.192 7.168-15.36 15.36-15.36s15.36 7.168 15.36 15.36v197.632c0 9.216-6.144 15.36-15.36 15.36z"
        ],
        "attrs": [
          {},
          {},
          {},
          {},
          {},
          {},
          {},
          {},
          {}
        ],
        "isMulticolor": false,
        "isMulticolor2": false,
        "grid": 24,
        "tags": [
          "barley_noun_632850_cc"
        ]
      },
      "attrs": [
        {},
        {},
        {},
        {},
        {},
        {},
        {},
        {},
        {}
      ],
      "properties": {
        "order": 17,
        "id": 12,
        "name": "barley",
        "prevSize": 32,
        "code": 59649
      },
      "setIdx": 0,
      "setId": 4,
      "iconIdx": 1
    },
    {
      "icon": {
        "paths": [
          "M757.76 323.584c0-46.080-2.048-194.56-41.984-274.432-10.24-19.456-27.648-28.672-69.632-28.672h-268.288c-41.984 0-59.392 9.216-69.632 28.672-39.936 79.872-41.984 228.352-41.984 274.432 0 215.040 70.656 220.16 70.656 397.312 0 87.040-34.816 156.672-34.816 218.112 0 59.392 19.456 64.512 70.656 64.512h280.576c50.176 0 70.656-5.12 70.656-64.512 0-61.44-34.816-131.072-34.816-218.112-2.048-176.128 68.608-182.272 68.608-397.312zM339.968 64.512c2.048-3.072 3.072-4.096 5.12-5.12 4.096-2.048 13.312-4.096 32.768-4.096h267.264c19.456 0 28.672 2.048 32.768 4.096 3.072 1.024 4.096 2.048 5.12 5.12 17.408 34.816 29.696 93.184 34.816 166.912h-412.672c5.12-73.728 17.408-132.096 34.816-166.912z"
        ],
        "attrs": [
          {}
        ],
        "isMulticolor": false,
        "isMulticolor2": false,
        "grid": 24,
        "tags": [
          "beer_noun_390552_cc"
        ]
      },
      "attrs": [
        {}
      ],
      "properties": {
        "order": 18,
        "id": 11,
        "name": "beer",
        "prevSize": 32,
        "code": 59650
      },
      "setIdx": 0,
      "setId": 4,
      "iconIdx": 2
    },
    {
      "icon": {
        "paths": [
          "M543.665 6.97v0c0 4.096 0 4.096 0 0h-72.704c-8.192 0-8.192 4.096-12.288 12.288s-8.192 16.384-8.192 24.576c0 4.096 0 8.192 0 12.288s4.096 8.192 4.096 24.576c0 16.384-4.096 44.032-8.192 72.704-4.096 27.648-8.192 48.128-12.288 79.872-4.096 27.648-4.096 68.608-4.096 88.064s-4.096 27.648-8.192 39.936c-4.096 12.288-16.384 31.744-24.576 44.032s-12.288 20.48-12.288 39.936 0 48.128 0 104.448c0 56.32 0 136.192 0 204.8s-4.096 128-4.096 164.864c0 35.84 4.096 44.032 12.288 56.32s20.48 20.48 39.936 27.648c20.48 8.192 44.032 12.288 56.32 12.288 16.384 4.096 16.384 4.096 20.48 0v0c0 4.096 4.096 4.096 20.48 0s39.936-4.096 56.32-12.288c16.384-8.192 31.744-16.384 39.936-27.648s12.288-20.48 12.288-56.32c0-35.84 0-96.256-4.096-164.864 0-68.608 0-152.576 0-204.8 0-56.32 0-88.064 0-104.448 0-20.48-4.096-24.576-12.288-39.936-8.192-12.288-16.384-31.744-24.576-44.032-4.096-12.288-8.192-16.384-8.192-39.936 0-20.48-4.096-56.32-4.096-88.064-4.096-27.648-8.192-52.224-12.288-79.872s-8.192-56.32-8.192-72.704c0-16.384 0-20.48 4.096-24.576 0-4.096 4.096-8.192 0-12.288s-8.192-16.384-8.192-24.576c-5.12-4.096-5.12-8.192-17.408-12.288 4.096 0 4.096 0 0 0v0zM399.281 516.922c0 0 0 4.096 0 0 0 27.648 48.128 48.128 108.544 48.128v0c60.416 0 108.544-20.48 108.544-44.032v0 0 305.152c0 24.576-48.128 44.032-108.544 44.032s-108.544-20.48-108.544-44.032v0 0-309.248z"
        ],
        "attrs": [
          {}
        ],
        "isMulticolor": false,
        "isMulticolor2": false,
        "grid": 24,
        "tags": [
          "bottle_noun_1089787_cc"
        ]
      },
      "attrs": [
        {}
      ],
      "properties": {
        "order": 19,
        "id": 10,
        "name": "bottle",
        "prevSize": 32,
        "code": 59651
      },
      "setIdx": 0,
      "setId": 4,
      "iconIdx": 3
    },
    {
      "icon": {
        "paths": [
          "M399.36 519.168c0 0 0-2.048 0-2.048 0 25.6 39.936 44.032 93.184 48.128l38.912-21.504c0-3.072-1.024-7.168-1.024-10.24 0-57.344 46.080-103.424 102.4-103.424-2.048-8.192-5.12-14.336-11.264-24.576-8.192-12.288-16.384-31.744-24.576-44.032-4.096-12.288-8.192-16.384-8.192-39.936 0-20.48-4.096-56.32-4.096-88.064-4.096-27.648-8.192-52.224-12.288-79.872s-8.192-56.32-8.192-72.704c0-16.384 0-20.48 4.096-24.576 0-4.096 4.096-8.192 0-12.288s-8.192-16.384-8.192-24.576c-5.12-4.096-5.12-8.192-17.408-12.288 0 2.048 0 3.072 0 3.072s0-1.024 0-3.072h-71.68c-8.192 0-8.192 4.096-12.288 12.288s-8.192 16.384-8.192 24.576c0 4.096 0 8.192 0 12.288s4.096 8.192 4.096 24.576c0 16.384-4.096 44.032-8.192 72.704-4.096 27.648-8.192 48.128-12.288 79.872-4.096 27.648-4.096 68.608-4.096 88.064s-4.096 27.648-8.192 39.936c-4.096 12.288-16.384 31.744-24.576 44.032s-12.288 20.48-12.288 39.936c0 19.456 0 48.128 0 104.448 0 6.144 0 13.312 0 20.48 5.12 2.048 9.216 3.072 14.336 5.12v-56.32z",
          "M558.080 877.568c0-3.072 0-7.168 1.024-11.264l-3.072-1.024c-14.336 3.072-30.72 4.096-48.128 4.096-53.248 0-97.28-16.384-106.496-35.84-6.144 3.072-12.288 5.12-18.432 7.168-1.024 30.72-2.048 58.368-2.048 77.824 0 35.84 4.096 44.032 12.288 56.32s20.48 20.48 39.936 27.648c20.48 8.192 44.032 12.288 56.32 12.288 16.384 4.096 16.384 4.096 20.48 0 0 4.096 4.096 4.096 20.48 0s39.936-4.096 56.32-12.288c13.312-6.144 25.6-13.312 34.816-21.504-37.888-18.432-63.488-58.368-63.488-103.424z",
          "M616.448 634.88v142.336c6.144-4.096 12.288-6.144 19.456-9.216 0-4.096 0-9.216-1.024-13.312 0-37.888 0-79.872 0-118.784-1.024 0-1.024 0-2.048 0-5.12 0-11.264 0-16.384-1.024z",
          "M616.448 826.368v-30.72c-7.168 5.12-13.312 11.264-19.456 17.408l-136.192-66.56c4.096-13.312 7.168-26.624 7.168-41.984 0-17.408-3.072-33.792-10.24-48.128l112.64-62.464c12.288 12.288 27.648 21.504 46.080 24.576v-98.304c0 21.504-39.936 39.936-92.16 43.008l-92.16 51.2c-9.216-9.216-20.48-17.408-32.768-23.552v225.28c14.336-7.168 26.624-16.384 36.864-28.672l139.264 68.608c0 1.024 0 2.048 0 3.072 24.576-6.144 40.96-18.432 40.96-32.768z",
          "M385.024 586.752c-13.312-5.12-27.648-7.168-43.008-7.168-69.632 0-126.976 57.344-126.976 126.976s57.344 126.976 126.976 126.976c14.336 0 28.672-3.072 41.984-7.168 1.024-21.504 1.024-45.056 1.024-70.656 0-56.32 0-117.76 0-168.96z",
          "M634.88 549.888c0 19.456 0 45.056 0 70.656 48.128-1.024 87.040-39.936 87.040-88.064s-38.912-87.040-87.040-88.064c0 0 0 0 0 0 0 17.408 0 49.152 0 105.472z",
          "M630.784 969.728c13.312 6.144 28.672 10.24 45.056 10.24 56.32 0 102.4-46.080 102.4-102.4s-46.080-102.4-102.4-102.4c-14.336 0-27.648 3.072-39.936 8.192 2.048 56.32 3.072 104.448 3.072 135.168 0 29.696-3.072 41.984-8.192 51.2z",
          "M385.024 586.752c0 51.2 0 113.664 0 167.936 0 24.576-1.024 48.128-1.024 70.656 5.12-2.048 10.24-4.096 15.36-7.168v-225.28c-5.12-3.072-9.216-5.12-14.336-6.144z",
          "M616.448 521.216v0 98.304c5.12 1.024 11.264 2.048 16.384 2.048 1.024 0 1.024 0 2.048 0 0-26.624 0-51.2 0-70.656 0-56.32 0-88.064 0-104.448 0 0 0 0 0 0s-1.024 0-1.024 0c-48.128 0-88.064 38.912-88.064 88.064 0 6.144 1.024 12.288 2.048 18.432l-23.552 13.312c52.224-5.12 92.16-23.552 92.16-45.056z",
          "M616.448 826.368c0 14.336-16.384 26.624-40.96 34.816-1.024 5.12-2.048 11.264-2.048 17.408 0 39.936 23.552 74.752 57.344 91.136 5.12-9.216 8.192-20.48 8.192-50.176 0-30.72 0-78.848-3.072-135.168-7.168 3.072-13.312 7.168-19.456 11.264v30.72z"
        ],
        "attrs": [
          {},
          {},
          {},
          {},
          {},
          {},
          {},
          {},
          {},
          {}
        ],
        "isMulticolor": false,
        "isMulticolor2": false,
        "grid": 24,
        "tags": [
          "bottle_share_noun_390552_cc"
        ]
      },
      "attrs": [
        {},
        {},
        {},
        {},
        {},
        {},
        {},
        {},
        {},
        {}
      ],
      "properties": {
        "order": 20,
        "id": 9,
        "name": "bottle-share",
        "prevSize": 32,
        "code": 59652
      },
      "setIdx": 0,
      "setId": 4,
      "iconIdx": 4
    },
    {
      "icon": {
        "paths": [
          "M532.48 875.52c0-2.048 0-4.096 0-6.144-8.192 1.024-16.384 1.024-24.576 1.024-60.416 0-108.544-20.48-108.544-44.032v-25.6c-5.12 1.024-10.24 2.048-15.36 3.072-1.024 48.128-3.072 88.064-3.072 115.712 0 35.84 4.096 44.032 12.288 56.32s20.48 20.48 39.936 27.648c20.48 8.192 44.032 12.288 56.32 12.288 16.384 4.096 16.384 4.096 20.48 0 0 4.096 4.096 4.096 20.48 0s39.936-4.096 56.32-12.288c15.36-8.192 29.696-15.36 38.912-25.6-52.224-5.12-93.184-49.152-93.184-102.4z",
          "M399.36 618.496c0 0-1.024 0-1.024 0s0 0 1.024 0v0z",
          "M616.448 775.168c6.144-1.024 12.288-2.048 18.432-2.048 0 0 1.024 0 1.024 0 0-6.144-1.024-12.288-1.024-18.432 0-39.936 0-83.968 0-124.928-6.144 0-12.288-1.024-18.432-2.048v147.456z",
          "M399.36 519.168c0 0 0-2.048 0-2.048 0 27.648 48.128 48.128 108.544 48.128 1.024 0 2.048 0 4.096 0l23.552-15.36c-2.048-7.168-3.072-14.336-3.072-21.504 0-55.296 44.032-101.376 99.328-102.4-2.048-6.144-5.12-11.264-10.24-19.456-8.192-12.288-16.384-31.744-24.576-44.032-4.096-12.288-8.192-16.384-8.192-39.936 0-20.48-4.096-56.32-4.096-88.064-4.096-27.648-8.192-52.224-12.288-79.872s-8.192-56.32-8.192-72.704c0-16.384 0-20.48 4.096-24.576 0-4.096 4.096-8.192 0-12.288s-8.192-16.384-8.192-24.576c-5.12-4.096-5.12-8.192-17.408-12.288 0 2.048 0 3.072 0 3.072s0-1.024 0-3.072h-71.68c-8.192 0-8.192 4.096-12.288 12.288-4.096 7.168-8.192 15.36-8.192 23.552 0 4.096 0 8.192 0 12.288s4.096 8.192 4.096 24.576c0 16.384-4.096 44.032-8.192 72.704-4.096 27.648-8.192 48.128-12.288 79.872-4.096 27.648-4.096 68.608-4.096 88.064s-4.096 27.648-8.192 39.936c-4.096 12.288-16.384 31.744-24.576 44.032s-12.288 20.48-12.288 39.936c0 19.456 0 48.128 0 104.448 0 15.36 0 31.744 0 50.176 5.12 1.024 9.216 1.024 14.336 3.072v-83.968z",
          "M633.856 962.56c0 0 1.024 0 0 0 49.152 0 88.064-38.912 88.064-87.040 0-47.104-37.888-86.016-84.992-87.040 2.048 54.272 2.048 101.376 2.048 131.072-0 22.528-2.048 34.816-5.12 43.008z",
          "M616.448 826.368v-35.84c-14.336 3.072-27.648 10.24-39.936 20.48l-120.832-80.896c3.072-9.216 5.12-18.432 5.12-28.672s-2.048-19.456-5.12-28.672l120.832-80.896c2.048 2.048 4.096 3.072 6.144 5.12 6.144 5.12 13.312 8.192 20.48 11.264 4.096 2.048 8.192 3.072 13.312 4.096v-91.136c0 18.432-30.72 35.84-73.728 41.984l-110.592 73.728c-6.144-5.12-12.288-9.216-19.456-13.312-4.096-2.048-9.216-4.096-13.312-5.12v165.888c12.288-4.096 22.528-10.24 32.768-18.432l120.832 80.896c-2.048 6.144-4.096 13.312-4.096 19.456 39.936-6.144 67.584-21.504 67.584-39.936z",
          "M634.88 549.888c0 18.432 0 40.96 0 64.512 0 0 0 0 0 0 48.128 0 87.040-38.912 87.040-87.040s-38.912-87.040-87.040-87.040c0 0 0 0 0 0 0 2.048 0 3.072 0 5.12 0 16.384 0 48.128 0 104.448z",
          "M385.024 615.424c-4.096 0-7.168-1.024-11.264-1.024-48.128 0-87.040 38.912-87.040 87.040s38.912 87.040 87.040 87.040c4.096 0 7.168 0 11.264-1.024 0-11.264 0-21.504 0-32.768 0-45.056 0-94.208 0-139.264z",
          "M616.448 521.216v0 91.136c6.144 1.024 12.288 2.048 18.432 2.048 0-24.576 0-46.080 0-64.512 0-56.32 0-88.064 0-104.448 0-2.048 0-3.072 0-5.12-48.128 0-87.040 38.912-87.040 87.040 0 10.24 2.048 19.456 5.12 28.672l-10.24 7.168c43.008-6.144 73.728-23.552 73.728-41.984z",
          "M398.336 617.472c-4.096-1.024-8.192-2.048-13.312-3.072 0 45.056 0 94.208 0 139.264 0 11.264 0 22.528 0 32.768 5.12-1.024 10.24-2.048 14.336-3.072v-164.864c-1.024 0-1.024 0-1.024-1.024z",
          "M616.448 790.528v35.84c0 18.432-27.648 34.816-67.584 40.96 0 3.072-1.024 5.12-1.024 8.192 0 47.104 38.912 87.040 86.016 87.040 3.072-8.192 5.12-20.48 5.12-43.008 0-29.696 0-76.8-2.048-131.072-1.024 0-1.024 0-2.048 0-6.144 0-12.288 1.024-18.432 2.048z"
        ],
        "attrs": [
          {},
          {},
          {},
          {},
          {},
          {},
          {},
          {},
          {},
          {},
          {}
        ],
        "isMulticolor": false,
        "isMulticolor2": false,
        "grid": 24,
        "tags": [
          "bottle_share2_noun_390552_cc"
        ]
      },
      "attrs": [
        {},
        {},
        {},
        {},
        {},
        {},
        {},
        {},
        {},
        {},
        {}
      ],
      "properties": {
        "order": 21,
        "id": 8,
        "name": "bottle-share2",
        "prevSize": 32,
        "code": 59653
      },
      "setIdx": 0,
      "setId": 4,
      "iconIdx": 5
    },
    {
      "icon": {
        "paths": [
          "M267.264 942.080c0 22.528-18.432 40.96-40.96 40.96v0c-22.528 0-40.96-18.432-40.96-40.96v-368.64l40.96 63.488v-19.456l40.96 67.584v257.024z",
          "M838.656 942.080c0 22.528-18.432 40.96-40.96 40.96v0c-22.528 0-40.96-18.432-40.96-40.96v-258.048l40.96-50.176 40.96-80.896v389.12z",
          "M513.024 40.96c77.824 0 155.648 11.264 155.648 32.768v39.936c93.184 12.288 162.816 35.84 162.816 71.68v347.136c0 92.16-319.488 375.808-319.488 375.808s-319.488-283.648-319.488-375.808v-347.136c0-35.84 70.656-59.392 164.864-71.68v-39.936c-0-21.504 77.824-32.768 155.648-32.768zM513.024 20.48c-116.736 0-176.128 17.408-176.128 53.248v22.528c-109.568 16.384-164.864 46.080-164.864 89.088v347.136c0 16.384 0 66.56 164.864 237.568 79.872 81.92 159.744 153.6 160.768 154.624l13.312 12.288 13.312-12.288c1.024-1.024 80.896-72.704 160.768-154.624 166.912-172.032 166.912-221.184 166.912-237.568v-347.136c0-43.008-55.296-72.704-162.816-89.088v-22.528c0-35.84-59.392-53.248-176.128-53.248v0z",
          "M229.376 348.16v162.816c0 81.92 282.624 333.824 282.624 333.824s282.624-251.904 282.624-333.824v-155.648c0 0-65.536-66.56-167.936-66.56s-203.776 65.536-280.576 65.536c-75.776 0-116.736-6.144-116.736-6.144zM348.16 549.888c-22.528 0-40.96-18.432-40.96-40.96s18.432-40.96 40.96-40.96 40.96 18.432 40.96 40.96-18.432 40.96-40.96 40.96zM417.792 450.56c-15.36 0-28.672-12.288-28.672-28.672s13.312-28.672 28.672-28.672 28.672 12.288 28.672 28.672-12.288 28.672-28.672 28.672z"
        ],
        "attrs": [
          {},
          {},
          {},
          {}
        ],
        "isMulticolor": false,
        "isMulticolor2": false,
        "grid": 24,
        "tags": [
          "fermenter_noun_27777_cc"
        ]
      },
      "attrs": [
        {},
        {},
        {},
        {}
      ],
      "properties": {
        "order": 22,
        "id": 7,
        "name": "fermenter",
        "prevSize": 32,
        "code": 59654
      },
      "setIdx": 0,
      "setId": 4,
      "iconIdx": 6
    },
    {
      "icon": {
        "paths": [
          "M580.608 741.376l20.48-19.456c8.192-8.192 13.312-18.432 13.312-29.696v0c112.64-33.792 178.176-139.264 178.176-241.664 0-89.088-27.648-152.576-49.152-204.8-11.264-26.624-21.504-49.152-23.552-69.632-8.192-56.32 15.36-99.328 15.36-100.352 2.048-3.072 2.048-7.168 0-10.24-2.048-2.048-6.144-4.096-9.216-4.096h-387.072c-3.072 0-7.168 2.048-9.216 5.12s-2.048 7.168 0 10.24c0 0 24.576 44.032 15.36 100.352-3.072 20.48-12.288 43.008-23.552 69.632-21.504 51.2-48.128 115.712-48.128 204.8 0 104.448 67.584 210.944 184.32 243.712 0 10.24 4.096 20.48 12.288 28.672l16.384 19.456c4.096 4.096 5.12 10.24 5.12 16.384v112.64c0 8.192-3.072 16.384-10.24 19.456-8.192 4.096-17.408 10.24-28.672 15.36-69.632 36.864-92.16 51.2-92.16 66.56 0 6.144 5.12 10.24 10.24 10.24h326.656c6.144 0 10.24-4.096 10.24-10.24 0-15.36-22.528-29.696-92.16-66.56-11.264-6.144-22.528-11.264-30.72-15.36-6.144-5.12-11.264-13.312-11.264-21.504v-112.64c0-6.144 3.072-11.264 7.168-16.384zM706.56 560.128c-2.048 3.072-5.12 5.12-8.192 5.12-2.048 0-4.096 0-5.12-2.048-5.12-3.072-6.144-9.216-3.072-14.336 19.456-29.696 29.696-66.56 29.696-98.304 0-29.696-3.072-58.368-11.264-87.040-1.024-5.12 2.048-11.264 7.168-12.288s11.264 2.048 12.288 7.168c8.192 30.72 11.264 60.416 11.264 91.136-0 36.864-11.264 77.824-32.768 110.592zM609.28 617.472c20.48-8.192 38.912-21.504 55.296-36.864 4.096-4.096 10.24-4.096 14.336 0s4.096 10.24 0 14.336c-17.408 17.408-38.912 31.744-61.44 40.96-1.024 0-3.072 1.024-4.096 1.024-4.096 0-8.192-2.048-9.216-6.144-2.048-5.12-0-11.264 5.12-13.312zM355.328 81.92h354.304c-7.168 19.456-17.408 55.296-11.264 97.28 2.048 12.288 6.144 24.576 10.24 37.888-38.912-7.168-76.8 8.192-94.208 15.36-1.024 0-3.072 1.024-4.096 2.048 0-1.024-1.024-1.024-1.024-2.048-5.12-8.192-16.384-24.576-38.912-27.648-20.48-3.072-38.912 6.144-48.128 12.288-10.24-7.168-32.768-18.432-65.536-15.36-37.888 3.072-59.392 19.456-69.632 30.72-11.264-7.168-24.576-10.24-32.768-11.264 5.12-14.336 9.216-27.648 11.264-40.96 7.168-43.008-3.072-78.848-10.24-98.304zM340.992 253.952c2.048-4.096 4.096-9.216 5.12-13.312 8.192 0 24.576 3.072 35.84 13.312 2.048 2.048 5.12 3.072 8.192 3.072s6.144-3.072 7.168-5.12c1.024-1.024 15.36-25.6 59.392-28.672 35.84-3.072 56.32 15.36 57.344 15.36 4.096 4.096 10.24 4.096 14.336 0 0 0 17.408-15.36 37.888-12.288 14.336 2.048 20.48 11.264 25.6 19.456 4.096 5.12 8.192 12.288 15.36 12.288 3.072 0 7.168-1.024 14.336-4.096 19.456-8.192 60.416-24.576 96.256-11.264 2.048 4.096 3.072 8.192 5.12 12.288 7.168 16.384 14.336 33.792 21.504 53.248h-423.936c6.144-20.48 14.336-37.888 20.48-54.272z"
        ],
        "attrs": [
          {}
        ],
        "isMulticolor": false,
        "isMulticolor2": false,
        "grid": 24,
        "tags": [
          "glass_noun_1028506_cc"
        ]
      },
      "attrs": [
        {}
      ],
      "properties": {
        "order": 23,
        "id": 6,
        "name": "glass",
        "prevSize": 32,
        "code": 59655
      },
      "setIdx": 0,
      "setId": 4,
      "iconIdx": 7
    },
    {
      "icon": {
        "paths": [
          "M544.288 802.589c16.848 19.652 36.5 36.5 56.152 51.94-19.652 47.728-49.136 91.249-88.44 126.342-39.304-35.098-68.788-78.614-88.44-126.342 21.060-15.44 39.304-32.288 56.152-51.94 4.212 4.212 9.826 8.424 14.038 12.636l16.848 14.038 16.848-14.038c7.022-4.212 11.228-8.424 16.848-12.636zM684.668 841.895c29.478-44.924 47.728-95.459 53.342-145.994-29.478-12.636-57.554-29.478-84.228-47.728-16.848 42.114-40.712 81.419-70.19 116.516 28.076 30.886 61.766 57.554 101.076 77.211zM548.5 523.228c-7.022 4.212-15.44 8.424-22.462 12.636l-14.038 8.424-12.636-7.022c-8.424-4.212-15.44-8.424-22.462-12.636-16.848 30.886-36.5 57.554-60.364 82.826 18.25 57.554 50.538 109.497 96.864 150.206 46.326-40.712 78.614-92.652 96.864-150.206-25.266-25.266-44.924-53.342-61.766-84.228zM285.987 694.494c5.614 51.94 23.864 102.478 53.342 147.401 39.304-19.652 73-46.326 101.076-78.614-30.886-35.098-54.75-74.402-70.19-116.516-25.266 19.652-53.342 35.098-84.228 47.728zM430.581 490.94c-25.266-21.060-47.728-44.924-67.381-71.592-43.516 29.478-92.652 47.728-144.592 57.554-1.402 58.962 11.228 116.516 39.304 169.861 74.402-30.886 134.766-85.63 172.668-155.823zM593.419 490.94c36.5 70.19 98.266 124.94 172.668 154.418 28.076-53.342 42.114-110.902 39.304-169.861-51.94-9.826-99.668-28.076-144.592-57.554-18.25 28.076-42.114 51.94-67.381 73zM540.076 118.933v-56.152c0-15.44-12.636-28.076-28.076-28.076s-28.076 12.636-28.076 28.076v56.152c-162.842 14.038-293.395 143.19-307.433 306.031 64.576-5.614 124.94-29.478 175.477-68.788l25.266-19.652 16.848 26.674c29.478 47.728 70.19 87.038 117.918 115.114 47.728-28.076 88.44-67.381 117.918-115.114l16.848-26.674 25.266 19.652c51.94 39.304 112.304 63.173 175.477 68.788-14.038-162.842-144.592-291.991-307.433-306.031z"
        ],
        "attrs": [
          {}
        ],
        "isMulticolor": false,
        "isMulticolor2": false,
        "grid": 24,
        "tags": [
          "hop_noun_9254_cc"
        ]
      },
      "attrs": [
        {}
      ],
      "properties": {
        "order": 24,
        "id": 5,
        "name": "hop",
        "prevSize": 32,
        "code": 59656
      },
      "setIdx": 0,
      "setId": 4,
      "iconIdx": 8
    },
    {
      "icon": {
        "paths": [
          "M410.624 656.384c32.768 62.464 89.088 116.736 101.376 116.736s68.608-53.248 101.376-116.736c-29.696-16.384-57.344-37.888-75.776-65.536 0-1.024-1.024-1.024-1.024-2.048-9.216 4.096-17.408 7.168-24.576 7.168s-15.36-3.072-24.576-7.168c0 1.024-1.024 1.024-1.024 2.048-18.432 27.648-46.080 49.152-75.776 65.536z",
          "M543.744 198.656v-115.712c0-17.408-14.336-31.744-31.744-31.744s-31.744 14.336-31.744 31.744v116.736c-116.736 12.288-264.192 94.208-268.288 253.952 20.48 7.168 93.184 6.144 156.672-33.792l21.504-13.312 10.24 23.552c25.6 56.32 92.16 115.712 111.616 120.832 18.432-5.12 86.016-64.512 111.616-120.832l10.24-23.552 21.504 13.312c63.488 38.912 136.192 39.936 156.672 33.792-4.096-159.744-151.552-241.664-268.288-254.976z",
          "M653.312 470.016c-19.456 32.768-49.152 68.608-78.848 93.184 0 1.024 1.024 1.024 1.024 2.048 41.984 61.44 156.672 92.16 194.56 92.16 5.12 0 9.216-1.024 11.264-2.048 10.24-7.168 26.624-84.992 16.384-154.624-4.096 0-9.216 0-14.336 0-37.888 1.024-86.016-8.192-130.048-30.72z",
          "M254.976 657.408c37.888 0 152.576-30.72 194.56-92.16 0-1.024 1.024-1.024 1.024-2.048-29.696-24.576-59.392-60.416-78.848-93.184-45.056 22.528-92.16 31.744-129.024 31.744-5.12 0-9.216 0-14.336 0-10.24 68.608 6.144 147.456 16.384 154.624 1.024 0 5.12 1.024 10.24 1.024z",
          "M338.944 830.464c0 0 1.024 0 2.048 0 12.288 0 57.344-24.576 96.256-60.416-29.696-32.768-56.32-72.704-66.56-93.184l-1.024-1.024c-35.84 14.336-70.656 22.528-95.232 25.6 14.336 64.512 53.248 125.952 64.512 129.024z",
          "M683.008 831.488c1.024 0 1.024 0 2.048 0 12.288-3.072 50.176-64.512 65.536-130.048-24.576-3.072-60.416-11.264-95.232-25.6l-1.024 1.024c-11.264 20.48-36.864 61.44-66.56 93.184 38.912 36.864 82.944 61.44 95.232 61.44z",
          "M556.032 804.864l-3.072-3.072c-14.336 10.24-28.672 16.384-40.96 16.384s-26.624-6.144-40.96-16.384l-3.072 3.072c-13.312 12.288-34.816 29.696-58.368 45.056 28.672 64.512 89.088 122.88 102.4 122.88s73.728-58.368 103.424-123.904c-23.552-14.336-45.056-31.744-59.392-44.032z"
        ],
        "attrs": [
          {},
          {},
          {},
          {},
          {},
          {},
          {}
        ],
        "isMulticolor": false,
        "isMulticolor2": false,
        "grid": 24,
        "tags": [
          "hop_noun_303464_cc"
        ]
      },
      "attrs": [
        {},
        {},
        {},
        {},
        {},
        {},
        {}
      ],
      "properties": {
        "order": 25,
        "id": 4,
        "name": "hop2",
        "prevSize": 32,
        "code": 59657
      },
      "setIdx": 0,
      "setId": 4,
      "iconIdx": 9
    },
    {
      "icon": {
        "paths": [
          "M696.32 634.88c-31.744 0-59.392 12.288-81.92 31.744l-171.008-114.688c4.096-12.288 7.168-25.6 7.168-39.936s-3.072-27.648-7.168-39.936l171.008-114.688c21.504 19.456 50.176 31.744 81.92 31.744 67.584 0 122.88-55.296 122.88-122.88s-55.296-122.88-122.88-122.88-122.88 55.296-122.88 122.88c0 14.336 3.072 27.648 7.168 39.936l-171.008 114.688c-21.504-19.456-50.176-31.744-81.92-31.744-67.584 0-122.88 55.296-122.88 122.88s55.296 122.88 122.88 122.88c31.744 0 59.392-12.288 81.92-31.744l171.008 114.688c-4.096 12.288-7.168 25.6-7.168 39.936 0 67.584 55.296 122.88 122.88 122.88s122.88-55.296 122.88-122.88-55.296-122.88-122.88-122.88z"
        ],
        "attrs": [
          {}
        ],
        "isMulticolor": false,
        "isMulticolor2": false,
        "grid": 24,
        "tags": [
          "share_noun_223005_cc"
        ]
      },
      "attrs": [
        {}
      ],
      "properties": {
        "order": 26,
        "id": 3,
        "name": "share2",
        "prevSize": 32,
        "code": 59658
      },
      "setIdx": 0,
      "setId": 4,
      "iconIdx": 10
    },
    {
      "icon": {
        "paths": [
          "M711.68 122.88c-70.656 0-128 57.344-128 128 0 9.216 1.024 17.408 3.072 26.624l-168.96 94.208c-33.792-33.792-79.872-54.272-131.072-54.272-101.376 0-184.32 82.944-184.32 184.32s82.944 184.32 184.32 184.32c54.272 0 103.424-23.552 137.216-61.44l202.752 99.328c-2.048 9.216-3.072 19.456-3.072 28.672 0 81.92 66.56 148.48 148.48 148.48s149.504-66.56 149.504-148.48-66.56-148.48-148.48-148.48c-46.080 0-88.064 21.504-114.688 54.272l-197.632-96.256c6.144-19.456 10.24-38.912 10.24-60.416 0-24.576-5.12-49.152-14.336-70.656l162.816-91.136c23.552 23.552 55.296 38.912 91.136 38.912 71.68 0 129.024-57.344 129.024-128s-57.344-128-128-128v0z"
        ],
        "attrs": [
          {}
        ],
        "isMulticolor": false,
        "isMulticolor2": false,
        "grid": 24,
        "tags": [
          "share_noun_246563_cc"
        ]
      },
      "attrs": [
        {}
      ],
      "properties": {
        "order": 27,
        "id": 2,
        "name": "share",
        "prevSize": 32,
        "code": 59659
      },
      "setIdx": 0,
      "setId": 4,
      "iconIdx": 11
    },
    {
      "icon": {
        "paths": [
          "M512 544.768c-168.96 0-305.152 44.032-305.152 99.328 0 168.96 137.216 305.152 305.152 305.152s305.152-137.216 305.152-305.152c0-55.296-136.192-99.328-305.152-99.328zM512 720.896c-106.496 0-198.656-17.408-244.736-41.984 40.96-23.552 130.048-43.008 244.736-43.008s203.776 19.456 243.712 43.008c-45.056 24.576-137.216 41.984-243.712 41.984zM769.024 670.72c-47.104-30.72-154.624-47.104-257.024-47.104s-209.92 16.384-257.024 48.128c-11.264-8.192-17.408-17.408-17.408-27.648 0-41.984 122.88-76.8 274.432-76.8s274.432 34.816 274.432 76.8c0 9.216-6.144 18.432-17.408 26.624z",
          "M559.104 488.448c0 6.786-5.502 12.288-12.288 12.288s-12.288-5.502-12.288-12.288c0-6.786 5.502-12.288 12.288-12.288s12.288 5.502 12.288 12.288z",
          "M530.432 531.456c7.168 0 12.288-5.12 12.288-12.288s-5.12-12.288-12.288-12.288-12.288 5.12-12.288 12.288c0 6.144 5.12 12.288 12.288 12.288z",
          "M539.648 586.752c0 6.786-5.502 12.288-12.288 12.288s-12.288-5.502-12.288-12.288c0-6.786 5.502-12.288 12.288-12.288s12.288 5.502 12.288 12.288z",
          "M577.536 603.136c0 6.786-5.502 12.288-12.288 12.288s-12.288-5.502-12.288-12.288c0-6.786 5.502-12.288 12.288-12.288s12.288 5.502 12.288 12.288z",
          "M552.96 656.384c0 6.786-5.502 12.288-12.288 12.288s-12.288-5.502-12.288-12.288c0-6.786 5.502-12.288 12.288-12.288s12.288 5.502 12.288 12.288z",
          "M482.304 664.576c0 6.786-5.502 12.288-12.288 12.288s-12.288-5.502-12.288-12.288c0-6.786 5.502-12.288 12.288-12.288s12.288 5.502 12.288 12.288z",
          "M522.24 677.888c0 6.786-5.502 12.288-12.288 12.288s-12.288-5.502-12.288-12.288c0-6.786 5.502-12.288 12.288-12.288s12.288 5.502 12.288 12.288z",
          "M584.704 677.888c0 6.786-5.502 12.288-12.288 12.288s-12.288-5.502-12.288-12.288c0-6.786 5.502-12.288 12.288-12.288s12.288 5.502 12.288 12.288z",
          "M408.576 491.52c1.024 5.12 5.12 9.216 10.24 9.216v0c25.6 0 54.272-3.072 84.992-9.216 5.12-1.024 9.216-6.144 9.216-12.288-3.072-23.552-9.216-75.776-23.552-137.216 23.552 39.936 53.248 90.112 68.608 125.952 2.048 5.12 8.192 7.168 13.312 6.144 116.736-33.792 223.232-90.112 224.256-90.112 4.096-2.048 6.144-6.144 6.144-10.24-10.24-156.672-148.48-290.816-154.624-296.96-4.096-4.096-11.264-4.096-15.36 0-116.736 113.664-277.504 147.456-279.552 148.48-3.072 1.024-6.144 3.072-7.168 5.12-1.024 3.072-2.048 6.144-1.024 9.216 46.080 112.64 64.512 249.856 64.512 251.904zM419.84 345.088l-17.408 4.096c-4.096-16.384-9.216-33.792-14.336-51.2l17.408-4.096c5.12 14.336 10.24 31.744 14.336 51.2zM405.504 361.472l17.408-4.096c4.096 18.432 8.192 38.912 12.288 61.44l-16.384 3.072c-3.072-17.408-8.192-37.888-13.312-60.416zM420.864 435.2l16.384-3.072c2.048 14.336 4.096 29.696 6.144 46.080-5.12 0-10.24 1.024-15.36 1.024-1.024-10.24-3.072-24.576-7.168-44.032zM471.040 270.336c-3.072-4.096-9.216-6.144-13.312-4.096-5.12 2.048-7.168 8.192-6.144 13.312 23.552 78.848 34.816 155.648 38.912 192.512-11.264 2.048-22.528 4.096-33.792 5.12-14.336-126.976-46.080-211.968-58.368-241.664 50.176-15.36 137.216-49.152 216.064-112.64 26.624 32.768 123.904 160.768 128 264.192-38.912 18.432-101.376 45.056-166.912 64.512-32.768-69.632-101.376-177.152-104.448-181.248zM729.088 220.16l-23.552 13.312c-12.288-23.552-26.624-45.056-38.912-63.488l19.456-15.36c13.312 19.456 28.672 40.96 43.008 65.536zM763.904 297.984l-25.6 10.24c-7.168-21.504-17.408-43.008-27.648-63.488l23.552-13.312c12.288 21.504 22.528 44.032 29.696 66.56zM754.688 380.928c-1.024-19.456-5.12-39.936-11.264-60.416l25.6-10.24c5.12 18.432 9.216 37.888 11.264 57.344-6.144 4.096-14.336 8.192-25.6 13.312zM640 100.352c8.192 8.192 21.504 23.552 37.888 44.032l-18.432 14.336c-14.336-20.48-26.624-35.84-33.792-45.056 4.096-4.096 9.216-8.192 14.336-13.312zM386.048 238.592c3.072 8.192 9.216 22.528 16.384 43.008l-17.408 4.096c-4.096-14.336-9.216-28.672-15.36-43.008 4.096-1.024 10.24-2.048 16.384-4.096z"
        ],
        "attrs": [
          {},
          {},
          {},
          {},
          {},
          {},
          {},
          {},
          {},
          {}
        ],
        "isMulticolor": false,
        "isMulticolor2": false,
        "grid": 24,
        "tags": [
          "yeast_noun_129009_cc"
        ]
      },
      "attrs": [
        {},
        {},
        {},
        {},
        {},
        {},
        {},
        {},
        {},
        {}
      ],
      "properties": {
        "order": 28,
        "id": 1,
        "name": "yeast-dry",
        "prevSize": 32,
        "code": 59660
      },
      "setIdx": 0,
      "setId": 4,
      "iconIdx": 12
    },
    {
      "icon": {
        "paths": [
          "M876.544 679.936l-2.048-3.072-182.272-246.784v-175.104c24.576-18.432 40.96-48.128 40.96-80.896 0-55.296-45.056-100.352-100.352-100.352h-241.664c-55.296 0-100.352 45.056-100.352 100.352 0 32.768 16.384 62.464 40.96 80.896v175.104l-182.272 246.784-4.096 6.144c-31.744 56.32-31.744 122.88 0 178.176 31.744 56.32 90.112 89.088 154.624 89.088h422.912c64.512 0 121.856-33.792 154.624-89.088 31.744-56.32 31.744-122.88 0-178.176l-1.024-3.072zM722.944 888.832h-421.888c-90.112 0-146.432-97.28-101.376-175.104l194.56-264.192v-236.544h-2.048c-21.504 0-38.912-17.408-38.912-38.912s17.408-38.912 38.912-38.912h240.64c21.504 0 38.912 17.408 38.912 38.912s-17.408 38.912-38.912 38.912h-2.048v236.544l194.56 264.192c44.032 77.824-12.288 175.104-102.4 175.104z",
          "M695.296 642.048c-37.888 27.648-111.616 60.416-185.344-23.552-45.056-52.224-90.112-59.392-126.976-51.2l-133.12 180.224c-12.288 23.552-3.072 45.056 1.024 53.248 5.12 8.192 19.456 27.648 48.128 27.648h422.912c28.672 0 43.008-19.456 48.128-27.648s13.312-28.672 1.024-53.248l-75.776-105.472z"
        ],
        "attrs": [
          {},
          {}
        ],
        "isMulticolor": false,
        "isMulticolor2": false,
        "grid": 24,
        "tags": [
          "yeast_noun_706468_cc"
        ]
      },
      "attrs": [
        {},
        {}
      ],
      "properties": {
        "order": 29,
        "id": 0,
        "name": "yeast-liquid",
        "prevSize": 32,
        "code": 59661
      },
      "setIdx": 0,
      "setId": 4,
      "iconIdx": 13
    }
  ],
  "height": 1024,
  "metadata": {
    "name": "icomoon"
  },
  "preferences": {
    "showGlyphs": true,
    "showQuickUse": true,
    "showQuickUse2": true,
    "showSVGs": true,
    "fontPref": {
      "prefix": "icon-",
      "metadata": {
        "fontFamily": "icomoon"
      },
      "metrics": {
        "emSize": 1024,
        "baseline": 6.25,
        "whitespace": 50
      },
      "embed": false
    },
    "imagePref": {
      "prefix": "icon-",
      "png": true,
      "useClassSelector": true,
      "color": 0,
      "bgColor": 16777215,
      "classSelector": ".icon"
    },
    "historySize": 50,
    "showCodes": true,
    "gridSize": 16,
    "showGrid": true
  }
}